<?xml version="1.0" encoding="utf-8"?>
<!DOCTYPE eagle SYSTEM "eagle.dtd">
<eagle version="9.1.0">
<drawing>
<settings>
<setting alwaysvectorfont="no"/>
<setting keepoldvectorfont="yes"/>
<setting verticaltext="up"/>
</settings>
<grid distance="50" unitdist="mil" unit="mil" style="lines" multiple="1" display="yes" altdistance="5" altunitdist="mil" altunit="mil"/>
<layers>
<layer number="1" name="Top" color="4" fill="1" visible="yes" active="yes"/>
<layer number="16" name="Bottom" color="1" fill="1" visible="yes" active="yes"/>
<layer number="17" name="Pads" color="2" fill="1" visible="yes" active="yes"/>
<layer number="18" name="Vias" color="2" fill="1" visible="yes" active="yes"/>
<layer number="19" name="Unrouted" color="6" fill="1" visible="yes" active="yes"/>
<layer number="20" name="Dimension" color="15" fill="1" visible="yes" active="yes"/>
<layer number="21" name="tPlace" color="7" fill="1" visible="yes" active="yes"/>
<layer number="22" name="bPlace" color="7" fill="1" visible="yes" active="yes"/>
<layer number="23" name="tOrigins" color="15" fill="1" visible="yes" active="yes"/>
<layer number="24" name="bOrigins" color="15" fill="1" visible="yes" active="yes"/>
<layer number="25" name="tNames" color="7" fill="1" visible="yes" active="yes"/>
<layer number="26" name="bNames" color="7" fill="1" visible="yes" active="yes"/>
<layer number="27" name="tValues" color="7" fill="1" visible="yes" active="yes"/>
<layer number="28" name="bValues" color="7" fill="1" visible="yes" active="yes"/>
<layer number="29" name="tStop" color="7" fill="3" visible="yes" active="yes"/>
<layer number="30" name="bStop" color="7" fill="6" visible="yes" active="yes"/>
<layer number="31" name="tCream" color="7" fill="4" visible="yes" active="yes"/>
<layer number="32" name="bCream" color="7" fill="5" visible="yes" active="yes"/>
<layer number="33" name="tFinish" color="6" fill="3" visible="yes" active="yes"/>
<layer number="34" name="bFinish" color="6" fill="6" visible="yes" active="yes"/>
<layer number="35" name="tGlue" color="7" fill="4" visible="yes" active="yes"/>
<layer number="36" name="bGlue" color="7" fill="5" visible="yes" active="yes"/>
<layer number="37" name="tTest" color="7" fill="1" visible="yes" active="yes"/>
<layer number="38" name="bTest" color="7" fill="1" visible="yes" active="yes"/>
<layer number="39" name="tKeepout" color="4" fill="11" visible="yes" active="yes"/>
<layer number="40" name="bKeepout" color="1" fill="11" visible="yes" active="yes"/>
<layer number="41" name="tRestrict" color="4" fill="10" visible="yes" active="yes"/>
<layer number="42" name="bRestrict" color="1" fill="10" visible="yes" active="yes"/>
<layer number="43" name="vRestrict" color="2" fill="10" visible="yes" active="yes"/>
<layer number="44" name="Drills" color="7" fill="1" visible="yes" active="yes"/>
<layer number="45" name="Holes" color="7" fill="1" visible="yes" active="yes"/>
<layer number="46" name="Milling" color="3" fill="1" visible="yes" active="yes"/>
<layer number="47" name="Measures" color="7" fill="1" visible="yes" active="yes"/>
<layer number="48" name="Document" color="7" fill="1" visible="yes" active="yes"/>
<layer number="49" name="Reference" color="7" fill="1" visible="yes" active="yes"/>
<layer number="51" name="tDocu" color="7" fill="1" visible="yes" active="yes"/>
<layer number="52" name="bDocu" color="7" fill="1" visible="yes" active="yes"/>
<layer number="88" name="SimResults" color="9" fill="1" visible="yes" active="yes"/>
<layer number="89" name="SimProbes" color="9" fill="1" visible="yes" active="yes"/>
<layer number="91" name="Nets" color="2" fill="1" visible="yes" active="yes"/>
<layer number="92" name="Busses" color="1" fill="1" visible="yes" active="yes"/>
<layer number="93" name="Pins" color="2" fill="1" visible="yes" active="yes"/>
<layer number="94" name="Symbols" color="4" fill="1" visible="yes" active="yes"/>
<layer number="95" name="Names" color="7" fill="1" visible="yes" active="yes"/>
<layer number="96" name="Values" color="7" fill="1" visible="yes" active="yes"/>
<layer number="97" name="Info" color="7" fill="1" visible="yes" active="yes"/>
<layer number="98" name="Guide" color="6" fill="1" visible="yes" active="yes"/>
</layers>
<library>
<description>&lt;b&gt;USB Connectors&lt;/b&gt;&lt;p&gt;
&lt;author&gt;Created by Erik Christiansson (erik@alphafish.com)&lt;/author&gt;&lt;p&gt;
Based on the datasheets for the following products.&lt;br&gt;
&lt;table&gt;
&lt;tr&gt;&lt;td&gt;Manufacturer&lt;/td&gt;&lt;td&gt;Part No.&lt;/td&gt;&lt;td&gt;Type&lt;/td&gt;&lt;tr&gt;
&lt;tr&gt;&lt;td&gt;Hsuan Mao&lt;/td&gt;&lt;td&gt;C8317-04AFDXX0&lt;/td&gt;&lt;td&gt;Series A Surface Mounted&lt;/td&gt;&lt;tr&gt;
&lt;tr&gt;&lt;td&gt;Hsuan Mao&lt;/td&gt;&lt;td&gt;C8317-04AFHSW0&lt;/td&gt;&lt;td&gt;Series A Hole Mounted&lt;/td&gt;&lt;tr&gt;
&lt;tr&gt;&lt;td&gt;Hsuan Mao&lt;/td&gt;&lt;td&gt;C3817-04AFVSW0&lt;/td&gt;&lt;td&gt;Series A Hole Mounted Up-Right&lt;/td&gt;&lt;/tr&gt;
&lt;tr&gt;&lt;td&gt;Hsuan Mao&lt;/td&gt;&lt;td&gt;C8317-04BFHSW0&lt;/td&gt;&lt;td&gt;Series B Hole Mounted&lt;/td&gt;&lt;tr&gt;
&lt;tr&gt;&lt;td&gt;Hsuan Mao&lt;/td&gt;&lt;td&gt;C8320-05BFDSB0&lt;/td&gt;&lt;td&gt;Series Mini-B Surface Mounted&lt;/td&gt;&lt;tr&gt;
&lt;tr&gt;&lt;td&gt;Hsuan Mao&lt;/td&gt;&lt;td&gt;C8320-05BFRSB0&lt;/td&gt;&lt;td&gt;Series Mini-B Hole Mounted&lt;/td&gt;&lt;tr&gt;
&lt;tr&gt;&lt;td&gt;Amp&lt;/td&gt;&lt;td&gt;787616-*&lt;/td&gt;&lt;td&gt;Series A Hole Mounted&lt;/td&gt;&lt;tr&gt;
&lt;tr&gt;&lt;td&gt;Amp&lt;/td&gt;&lt;td&gt;787780-1&lt;/td&gt;&lt;td&gt;Series B Hole Mounted&lt;/td&gt;&lt;tr&gt;
&lt;tr&gt;&lt;td&gt;ACON&lt;/td&gt;&lt;td&gt;UAR80-4****0&lt;/td&gt;&lt;td&gt;Series A Hole Mounted Up-Right&lt;/td&gt;&lt;/tr&gt;
&lt;tr&gt;&lt;td&gt;ACON&lt;/td&gt;&lt;td&gt;MNC20-5K5*1*&lt;/td&gt;&lt;td&gt;Series Mini-B Surface Mounted&lt;/td&gt;&lt;tr&gt;
&lt;tr&gt;&lt;td&gt;Molex&lt;/td&gt;&lt;td&gt;67068-****&lt;/td&gt;&lt;td&gt;Series B Hole Mounted&lt;/td&gt;&lt;tr&gt;
&lt;/table&gt;</description>
<packages>
<package name="USB-MB-S">
<description>&lt;b&gt;USB Series Mini-B Surface Mounted&lt;/b&gt;</description>
<wire x1="-5.95" y1="3.85" x2="-5.95" y2="-3.85" width="0.127" layer="22"/>
<wire x1="-5.95" y1="3.85" x2="3.3" y2="3.85" width="0.127" layer="22"/>
<wire x1="3.3" y1="3.85" x2="3.3" y2="-3.85" width="0.127" layer="22"/>
<wire x1="3.3" y1="-3.85" x2="-5.95" y2="-3.85" width="0.127" layer="22"/>
<wire x1="-4.615" y1="1.27" x2="-1.44" y2="0.635" width="0.127" layer="21"/>
<wire x1="-1.44" y1="0.635" x2="-1.44" y2="-0.635" width="0.127" layer="21"/>
<wire x1="-1.44" y1="-0.635" x2="-4.615" y2="-1.27" width="0.127" layer="21"/>
<wire x1="-2.075" y1="-3.175" x2="-4.615" y2="-2.8575" width="0.127" layer="21"/>
<wire x1="-4.615" y1="-2.8575" x2="-4.615" y2="-2.2225" width="0.127" layer="21"/>
<wire x1="-4.615" y1="-2.2225" x2="-2.075" y2="-1.905" width="0.127" layer="21"/>
<wire x1="-2.075" y1="3.175" x2="-4.615" y2="2.8575" width="0.127" layer="21"/>
<wire x1="-4.615" y1="2.8575" x2="-4.615" y2="2.2225" width="0.127" layer="21"/>
<wire x1="-4.615" y1="2.2225" x2="-2.075" y2="1.905" width="0.127" layer="21"/>
<pad name="P$5" x="0" y="2.2" drill="0.9"/>
<pad name="P$6" x="0" y="-2.2" drill="0.9"/>
<smd name="P$1" x="-3" y="-4.5" dx="2.5" dy="2" layer="1"/>
<smd name="P$2" x="-3" y="4.5" dx="2.5" dy="2" layer="1"/>
<smd name="P$3" x="2.5" y="-4.4" dx="2.5" dy="2" layer="1"/>
<smd name="P$4" x="2.5" y="4.5" dx="2.5" dy="2" layer="1"/>
<smd name="D+" x="2.5" y="0" dx="2.5" dy="0.5" layer="1"/>
<smd name="D-" x="2.5" y="0.8" dx="2.5" dy="0.5" layer="1"/>
<smd name="VBUS" x="2.5" y="1.6" dx="2.5" dy="0.5" layer="1"/>
<smd name="ID" x="2.5" y="-0.8" dx="2.5" dy="0.5" layer="1"/>
<smd name="GND" x="2.5" y="-1.6" dx="2.5" dy="0.5" layer="1"/>
<text x="5.2275" y="1.5875" size="1.27" layer="25" rot="R90">&gt;NAME</text>
</package>
<package name="USB-B-H">
<description>&lt;b&gt;USB Series B Hole Mounted&lt;/b&gt;</description>
<wire x1="-12.486" y1="6.0144" x2="-12.486" y2="-5.9998" width="0.127" layer="21"/>
<wire x1="3.2366" y1="6.0144" x2="3.2366" y2="-5.9998" width="0.127" layer="21"/>
<wire x1="3.2312" y1="6.0198" x2="-12.466" y2="6.0198" width="0.127" layer="21"/>
<wire x1="3.2058" y1="-6.0198" x2="-12.4406" y2="-6.0198" width="0.127" layer="21"/>
<wire x1="-5.08" y1="5.08" x2="-11.43" y2="4.445" width="0.127" layer="21"/>
<wire x1="-11.43" y1="4.445" x2="-11.43" y2="1.27" width="0.127" layer="21"/>
<wire x1="-11.43" y1="1.27" x2="-5.08" y2="0.635" width="0.127" layer="21"/>
<wire x1="-5.08" y1="-5.08" x2="-11.43" y2="-4.445" width="0.127" layer="21"/>
<wire x1="-11.43" y1="-4.445" x2="-11.43" y2="-1.27" width="0.127" layer="21"/>
<wire x1="-11.43" y1="-1.27" x2="-5.08" y2="-0.635" width="0.127" layer="21"/>
<pad name="VBUS" x="1.9812" y="-1.25" drill="0.9144" rot="R90"/>
<pad name="D-" x="1.9812" y="1.25" drill="0.9144" rot="R90"/>
<pad name="D+" x="0" y="1.25" drill="0.9144" rot="R270"/>
<pad name="GND" x="0" y="-1.25" drill="0.9144" rot="R270"/>
<pad name="P$1" x="-2.7178" y="-6.0198" drill="2.286"/>
<pad name="P$2" x="-2.7178" y="6.0198" drill="2.286"/>
<text x="5.06" y="3.175" size="1.27" layer="25" rot="R90">&gt;NAME</text>
</package>
<package name="USB-A-H">
<description>&lt;b&gt;USB Series A Hole Mounted&lt;/b&gt;</description>
<wire x1="3.6957" y1="6.5659" x2="-10.287" y2="6.5659" width="0.127" layer="21"/>
<wire x1="3.6957" y1="-6.5659" x2="-10.287" y2="-6.5659" width="0.127" layer="21"/>
<wire x1="-10.287" y1="6.477" x2="-10.287" y2="-6.477" width="0.127" layer="21"/>
<wire x1="3.7084" y1="6.5024" x2="3.7084" y2="-6.5024" width="0.127" layer="21"/>
<wire x1="-2.54" y1="-5.08" x2="-8.89" y2="-4.445" width="0.127" layer="21"/>
<wire x1="-8.89" y1="-4.445" x2="-8.89" y2="-1.27" width="0.127" layer="21"/>
<wire x1="-8.89" y1="-1.27" x2="-2.54" y2="-0.635" width="0.127" layer="21"/>
<wire x1="-2.54" y1="5.08" x2="-8.89" y2="4.445" width="0.127" layer="21"/>
<wire x1="-8.89" y1="4.445" x2="-8.89" y2="1.27" width="0.127" layer="21"/>
<wire x1="-8.89" y1="1.27" x2="-2.54" y2="0.635" width="0.127" layer="21"/>
<pad name="VBUS" x="2.7178" y="3.4925" drill="0.9144" diameter="1.778" shape="long" rot="R180"/>
<pad name="D-" x="2.7178" y="1.0033" drill="0.9144" shape="long" rot="R180"/>
<pad name="D+" x="2.7178" y="-1.0033" drill="0.9144" shape="long" rot="R180"/>
<pad name="GND" x="2.7178" y="-3.4925" drill="0.9144" diameter="1.778" shape="long" rot="R180"/>
<pad name="P$5" x="0" y="-6.5659" drill="2.3114" rot="R270"/>
<pad name="P$6" x="0" y="6.5659" drill="2.3114" rot="R270"/>
<text x="5.715" y="3.81" size="1.27" layer="25" rot="R90">&gt;NAME</text>
</package>
<package name="USB-A-S">
<description>&lt;b&gt;USB Series A Surface Mounted&lt;/b&gt;</description>
<wire x1="3.6957" y1="6.5659" x2="-10.287" y2="6.5659" width="0.127" layer="21"/>
<wire x1="3.6957" y1="-6.5659" x2="-10.287" y2="-6.5659" width="0.127" layer="21"/>
<wire x1="-10.287" y1="6.477" x2="-10.287" y2="-6.477" width="0.127" layer="21"/>
<wire x1="3.7084" y1="6.5024" x2="3.7084" y2="-6.5024" width="0.127" layer="21"/>
<wire x1="-2.54" y1="-5.08" x2="-8.89" y2="-4.445" width="0.127" layer="21"/>
<wire x1="-8.89" y1="-4.445" x2="-8.89" y2="-1.27" width="0.127" layer="21"/>
<wire x1="-8.89" y1="-1.27" x2="-2.54" y2="-0.635" width="0.127" layer="21"/>
<wire x1="-2.54" y1="5.08" x2="-8.89" y2="4.445" width="0.127" layer="21"/>
<wire x1="-8.89" y1="4.445" x2="-8.89" y2="1.27" width="0.127" layer="21"/>
<wire x1="-8.89" y1="1.27" x2="-2.54" y2="0.635" width="0.127" layer="21"/>
<pad name="P$5" x="0" y="-6.5659" drill="2.3114" rot="R270"/>
<pad name="P$6" x="0" y="6.5659" drill="2.3114" rot="R270"/>
<smd name="D-" x="3.45" y="1" dx="3" dy="0.9" layer="1"/>
<smd name="VBUS" x="3.45" y="3" dx="3" dy="0.9" layer="1"/>
<smd name="D+" x="3.45" y="-1" dx="3" dy="0.9" layer="1"/>
<smd name="GND" x="3.45" y="-3" dx="3" dy="0.9" layer="1"/>
<text x="5.715" y="3.81" size="1.27" layer="25" rot="R90">&gt;NAME</text>
</package>
<package name="USB-MB-H">
<description>&lt;b&gt;USB Series Mini-B Hole Mounted&lt;/b&gt;</description>
<wire x1="-3.75" y1="3.9" x2="-3.75" y2="-3.9" width="0.127" layer="22"/>
<wire x1="5.25" y1="3.9" x2="5.25" y2="-3.9" width="0.127" layer="22"/>
<wire x1="-3.75" y1="3.9" x2="5.25" y2="3.9" width="0.127" layer="22"/>
<wire x1="-3.75" y1="-3.9" x2="5.25" y2="-3.9" width="0.127" layer="22"/>
<wire x1="0.75" y1="3.5" x2="-3.25" y2="3" width="0.127" layer="22"/>
<wire x1="-3.25" y1="3" x2="-3.25" y2="2" width="0.127" layer="22"/>
<wire x1="-3.25" y1="2" x2="0.75" y2="1.5" width="0.127" layer="22"/>
<wire x1="1.25" y1="-3.5" x2="-3.25" y2="-3" width="0.127" layer="22"/>
<wire x1="-3.25" y1="-3" x2="-3.25" y2="-2" width="0.127" layer="22"/>
<wire x1="-3.25" y1="-2" x2="1.25" y2="-1.5" width="0.127" layer="22"/>
<wire x1="-3.25" y1="1.25" x2="1.75" y2="0.75" width="0.127" layer="22"/>
<wire x1="1.75" y1="0.75" x2="1.75" y2="-0.75" width="0.127" layer="22"/>
<wire x1="1.75" y1="-0.75" x2="-3.25" y2="-1.25" width="0.127" layer="22"/>
<pad name="VBUS" x="5.1" y="1.6" drill="0.8"/>
<pad name="D+" x="5.1" y="0" drill="0.8"/>
<pad name="GND" x="5.1" y="-1.6" drill="0.8"/>
<pad name="D-" x="3.9" y="0.8" drill="0.8"/>
<pad name="ID" x="3.9" y="-0.8" drill="0.8"/>
<pad name="P$6" x="0" y="-3.65" drill="1.9"/>
<pad name="P$7" x="0" y="3.65" drill="1.9"/>
<text x="7.25" y="1.5" size="1.27" layer="25" rot="R90">&gt;NAME</text>
<rectangle x1="3.25" y1="3" x2="5.75" y2="4.4" layer="43"/>
<rectangle x1="3.25" y1="-4.4" x2="5.75" y2="-3" layer="43"/>
<rectangle x1="-3.75" y1="-3.1" x2="-1.425" y2="3.1" layer="43"/>
<rectangle x1="-1.425" y1="-2.325" x2="-0.65" y2="2.325" layer="43"/>
</package>
<package name="USB-A-HU">
<description>&lt;b&gt;USB Series A Hole Mounted Up-Right&lt;/b&gt;</description>
<wire x1="-11.6" y1="2.6" x2="-11.6" y2="-2.6" width="0.127" layer="21"/>
<wire x1="7.7" y1="2.6" x2="7.7" y2="-2.6" width="0.127" layer="21"/>
<wire x1="-11.6" y1="2.6" x2="7.7" y2="2.6" width="0.127" layer="21"/>
<wire x1="-11.6" y1="-2.6" x2="7.7" y2="-2.6" width="0.127" layer="21"/>
<pad name="GND" x="0.73" y="0" drill="0.9"/>
<pad name="D+" x="2.73" y="0" drill="0.9"/>
<pad name="D-" x="4.73" y="0" drill="0.9"/>
<pad name="VBUS" x="6.73" y="0" drill="0.9"/>
<pad name="P$5" x="0" y="2.72" drill="1.5"/>
<pad name="P$6" x="0" y="-2.72" drill="1.5"/>
<pad name="P$7" x="7" y="2.72" drill="1.5"/>
<pad name="P$8" x="7" y="-2.72" drill="1.5"/>
<text x="10" y="1" size="1.27" layer="25" rot="R90">&gt;NAME</text>
</package>
<package name="USB-BV">
<wire x1="6" y1="5.75" x2="-6" y2="5.75" width="0.127" layer="21"/>
<wire x1="-6" y1="5.75" x2="-6" y2="-5.75" width="0.127" layer="21"/>
<wire x1="-6" y1="-5.75" x2="6" y2="-5.75" width="0.127" layer="21"/>
<wire x1="6" y1="-5.75" x2="6" y2="5.75" width="0.127" layer="21"/>
<wire x1="-4.225" y1="-3.89" x2="4.225" y2="-3.89" width="0.127" layer="21"/>
<wire x1="4.225" y1="-3.89" x2="4.225" y2="1.985" width="0.127" layer="21"/>
<wire x1="4.225" y1="1.985" x2="4.23" y2="1.98" width="0.127" layer="21"/>
<wire x1="4.225" y1="1.985" x2="2.32" y2="3.89" width="0.127" layer="21"/>
<wire x1="2.32" y1="3.89" x2="-2.32" y2="3.89" width="0.127" layer="21"/>
<wire x1="-2.32" y1="3.89" x2="-4.225" y2="1.985" width="0.127" layer="21"/>
<wire x1="-4.23" y1="1.98" x2="-4.225" y2="1.985" width="0.127" layer="21"/>
<wire x1="-4.225" y1="1.985" x2="-4.225" y2="-3.89" width="0.127" layer="21"/>
<wire x1="-2.8" y1="-1.365" x2="2.8" y2="-1.365" width="0.127" layer="21"/>
<wire x1="2.8" y1="-1.365" x2="2.8" y2="1.365" width="0.127" layer="21"/>
<wire x1="2.8" y1="1.365" x2="-2.8" y2="1.365" width="0.127" layer="21"/>
<wire x1="-2.8" y1="1.365" x2="-2.8" y2="-1.365" width="0.127" layer="21"/>
<pad name="P$1" x="0" y="-5.75" drill="0.9"/>
<pad name="P$2" x="-6.02" y="-1.34" drill="0.9"/>
<pad name="P$3" x="6.02" y="-1.34" drill="0.9"/>
<pad name="P$4" x="0" y="5.75" drill="0.9"/>
</package>
<package name="USB-B-SMT">
<description>USB Series B Surface Mounted</description>
<wire x1="-9" y1="6" x2="-9" y2="-6" width="0.127" layer="21"/>
<wire x1="-9" y1="-6" x2="-1" y2="-6" width="0.127" layer="21"/>
<wire x1="-1" y1="-6" x2="2.4" y2="-6" width="0.127" layer="21"/>
<wire x1="2.4" y1="-6" x2="7" y2="-6" width="0.127" layer="21"/>
<wire x1="7" y1="-6" x2="7" y2="6" width="0.127" layer="21"/>
<wire x1="7" y1="6" x2="2.4" y2="6" width="0.127" layer="21"/>
<wire x1="2.4" y1="6" x2="-1" y2="6" width="0.127" layer="21"/>
<wire x1="-1" y1="6" x2="-9" y2="6" width="0.127" layer="21"/>
<wire x1="2.4" y1="6" x2="2.4" y2="7.3" width="0.127" layer="21"/>
<wire x1="2.4" y1="7.3" x2="2.2" y2="7.5" width="0.127" layer="21"/>
<wire x1="2.2" y1="7.5" x2="1.9" y2="7.5" width="0.127" layer="21"/>
<wire x1="1.9" y1="7.5" x2="1.4" y2="7" width="0.127" layer="21"/>
<wire x1="-1" y1="6" x2="-1" y2="7.3" width="0.127" layer="21"/>
<wire x1="-0.4" y1="7.4" x2="-0.3" y2="7.5" width="0.127" layer="22"/>
<wire x1="-0.8" y1="7.5" x2="-0.5" y2="7.5" width="0.127" layer="21"/>
<wire x1="-0.5" y1="7.5" x2="0" y2="7" width="0.127" layer="21"/>
<wire x1="0" y1="7" x2="1.4" y2="7" width="0.127" layer="21"/>
<wire x1="-1" y1="-6" x2="-1" y2="-7.3" width="0.127" layer="21"/>
<wire x1="-1" y1="-7.3" x2="-0.8" y2="-7.5" width="0.127" layer="21"/>
<wire x1="-0.8" y1="-7.5" x2="-0.5" y2="-7.5" width="0.127" layer="21"/>
<wire x1="-0.5" y1="-7.5" x2="0" y2="-7" width="0.127" layer="21"/>
<wire x1="3" y1="-7.4" x2="2.9" y2="-7.5" width="0.127" layer="22"/>
<wire x1="1.9" y1="-7.5" x2="1.4" y2="-7" width="0.127" layer="21"/>
<wire x1="1.4" y1="-7" x2="0" y2="-7" width="0.127" layer="21"/>
<wire x1="-1" y1="7.3" x2="-0.8" y2="7.5" width="0.127" layer="21"/>
<wire x1="2.2" y1="-7.5" x2="1.9" y2="-7.5" width="0.127" layer="21"/>
<wire x1="2.2" y1="-7.5" x2="2.4" y2="-7.3" width="0.127" layer="21"/>
<wire x1="2.4" y1="-6" x2="2.4" y2="-7.3" width="0.127" layer="21"/>
<wire x1="6" y1="0.5" x2="5" y2="0.5" width="0.0504" layer="21"/>
<wire x1="5" y1="0.5" x2="5" y2="-0.5" width="0.127" layer="21"/>
<wire x1="5" y1="-0.5" x2="6" y2="-0.5" width="0.0504" layer="21"/>
<smd name="5" x="0.58" y="6.8" dx="6.04" dy="3.4" layer="1"/>
<smd name="6" x="0.58" y="-6.8" dx="6.04" dy="3.4" layer="1"/>
<smd name="D+" x="7" y="1.875" dx="3" dy="0.7" layer="1"/>
<smd name="D-" x="7" y="0.625" dx="3" dy="0.7" layer="1"/>
<smd name="GND" x="7" y="-0.625" dx="3" dy="0.7" layer="1"/>
<smd name="VUSB" x="7" y="-1.875" dx="3" dy="0.7" layer="1"/>
<text x="9.525" y="6.35" size="1.27" layer="25" rot="R270">&gt;NAME</text>
<hole x="0" y="2.25" drill="1.4"/>
<hole x="0" y="-2.25" drill="1.4"/>
</package>
<package name="USB-BV2">
<wire x1="6" y1="5.4" x2="-6" y2="5.4" width="0.127" layer="21"/>
<wire x1="-6" y1="5.4" x2="-6" y2="-1.3" width="0.127" layer="21"/>
<wire x1="-6" y1="-1.3" x2="-6" y2="-5.7" width="0.127" layer="21"/>
<wire x1="-6" y1="-5.7" x2="0" y2="-5.7" width="0.127" layer="21"/>
<wire x1="0" y1="-5.7" x2="6" y2="-5.7" width="0.127" layer="21"/>
<wire x1="6" y1="-5.7" x2="6" y2="5.4" width="0.127" layer="21"/>
<wire x1="-4.2" y1="-3.9" x2="4.2" y2="-3.9" width="0.127" layer="21"/>
<wire x1="4.2" y1="-3.9" x2="4.2" y2="2" width="0.127" layer="21"/>
<wire x1="4.2" y1="2" x2="2.3" y2="3.9" width="0.127" layer="21"/>
<wire x1="2.3" y1="3.9" x2="-2.3" y2="3.9" width="0.127" layer="21"/>
<wire x1="-2.3" y1="3.9" x2="-4.2" y2="2" width="0.127" layer="21"/>
<wire x1="-4.2" y1="2" x2="-4.2" y2="-3.9" width="0.127" layer="21"/>
<wire x1="-2.8" y1="-1.4" x2="2.8" y2="-1.4" width="0.127" layer="21"/>
<wire x1="2.8" y1="-1.4" x2="2.8" y2="1.4" width="0.127" layer="21"/>
<wire x1="-2.8" y1="1.4" x2="-2.8" y2="-1.4" width="0.127" layer="21"/>
<wire x1="-2.8" y1="1.4" x2="2.8" y2="1.4" width="0.127" layer="21"/>
<pad name="P$1" x="0" y="-5.65" drill="2.4"/>
<pad name="P$2" x="-6.02" y="-1.34" drill="2.4"/>
<pad name="P$3" x="6.02" y="-1.34" drill="2.4"/>
<pad name="P$4" x="0" y="5.35" drill="2.4"/>
<pad name="GND" x="1.25" y="-1.8" drill="0.9144" rot="R90"/>
<pad name="VBUS" x="1.25" y="1.4" drill="0.9144" rot="R90"/>
<pad name="D-" x="-1.25" y="1.4" drill="0.9144" rot="R270"/>
<pad name="D+" x="-1.25" y="-1.8" drill="0.9144" rot="R270"/>
</package>
</packages>
<symbols>
<symbol name="USB">
<wire x1="5.08" y1="8.89" x2="0" y2="8.89" width="0.254" layer="94"/>
<wire x1="0" y1="8.89" x2="0" y2="-1.27" width="0.254" layer="94"/>
<wire x1="0" y1="-1.27" x2="5.08" y2="-1.27" width="0.254" layer="94"/>
<text x="3.81" y="0" size="2.54" layer="94" rot="R90">USB</text>
<text x="0" y="-5.08" size="1.27" layer="95">&gt;NAME</text>
<pin name="D+" x="-2.54" y="7.62" visible="pad" length="short"/>
<pin name="D-" x="-2.54" y="5.08" visible="pad" length="short"/>
<pin name="VBUS" x="-2.54" y="2.54" visible="pad" length="short"/>
<pin name="GND" x="-2.54" y="0" visible="pad" length="short"/>
</symbol>
</symbols>
<devicesets>
<deviceset name="USB" prefix="X" uservalue="yes">
<description>&lt;b&gt;USB Connectors&lt;/b&gt;&lt;p&gt;</description>
<gates>
<gate name="G$1" symbol="USB" x="0" y="0"/>
</gates>
<devices>
<device name="-MB-S" package="USB-MB-S">
<connects>
<connect gate="G$1" pin="D+" pad="D+"/>
<connect gate="G$1" pin="D-" pad="D-"/>
<connect gate="G$1" pin="GND" pad="GND"/>
<connect gate="G$1" pin="VBUS" pad="VBUS"/>
</connects>
<technologies>
<technology name=""/>
</technologies>
</device>
<device name="-A-H" package="USB-A-H">
<connects>
<connect gate="G$1" pin="D+" pad="D+"/>
<connect gate="G$1" pin="D-" pad="D-"/>
<connect gate="G$1" pin="GND" pad="GND"/>
<connect gate="G$1" pin="VBUS" pad="VBUS"/>
</connects>
<technologies>
<technology name=""/>
</technologies>
</device>
<device name="-B-H" package="USB-B-H">
<connects>
<connect gate="G$1" pin="D+" pad="D+"/>
<connect gate="G$1" pin="D-" pad="D-"/>
<connect gate="G$1" pin="GND" pad="GND"/>
<connect gate="G$1" pin="VBUS" pad="VBUS"/>
</connects>
<technologies>
<technology name=""/>
</technologies>
</device>
<device name="-A-S" package="USB-A-S">
<connects>
<connect gate="G$1" pin="D+" pad="D+"/>
<connect gate="G$1" pin="D-" pad="D-"/>
<connect gate="G$1" pin="GND" pad="GND"/>
<connect gate="G$1" pin="VBUS" pad="VBUS"/>
</connects>
<technologies>
<technology name=""/>
</technologies>
</device>
<device name="-MB-H" package="USB-MB-H">
<connects>
<connect gate="G$1" pin="D+" pad="D+"/>
<connect gate="G$1" pin="D-" pad="D-"/>
<connect gate="G$1" pin="GND" pad="GND"/>
<connect gate="G$1" pin="VBUS" pad="VBUS"/>
</connects>
<technologies>
<technology name=""/>
</technologies>
</device>
<device name="-A-HU" package="USB-A-HU">
<connects>
<connect gate="G$1" pin="D+" pad="D+"/>
<connect gate="G$1" pin="D-" pad="D-"/>
<connect gate="G$1" pin="GND" pad="GND"/>
<connect gate="G$1" pin="VBUS" pad="VBUS"/>
</connects>
<technologies>
<technology name=""/>
</technologies>
</device>
<device name="-B-S" package="USB-B-SMT">
<connects>
<connect gate="G$1" pin="D+" pad="D+"/>
<connect gate="G$1" pin="D-" pad="D-"/>
<connect gate="G$1" pin="GND" pad="GND"/>
<connect gate="G$1" pin="VBUS" pad="VUSB"/>
</connects>
<technologies>
<technology name=""/>
</technologies>
</device>
<device name="-B-V" package="USB-BV2">
<connects>
<connect gate="G$1" pin="D+" pad="D+"/>
<connect gate="G$1" pin="D-" pad="D-"/>
<connect gate="G$1" pin="GND" pad="GND"/>
<connect gate="G$1" pin="VBUS" pad="VBUS"/>
</connects>
<technologies>
<technology name=""/>
</technologies>
</device>
</devices>
</deviceset>
</devicesets>
</library>
</drawing>
</eagle>
